Dissolved Oxygen • pepreporting
…
# 3 mg/l is acute, 4.8 mg/l is chronic
dlysum <- dodat %>% 
  mutate(
    Date = as.Date(DateTime)
  ) %>% 
  group_by(Date) %>% 
  summarise(
    acute = ifelse(any(do_mgl < 3), 1, 0), 
    chronic = ifelse(any(do_mgl < 4.8), 1, 0), 
    do_mgl = mean(do_mgl), 
    .groups = 'drop'
  ) 
dlysum
#> # A tibble: 2,857 x 4
#>    Date       acute chronic do_mgl
#>    <date>     <dbl>   <dbl>  <dbl>
#>  1 2013-01-01     0       0   11.0
#>  2 2013-01-02     0       0   11.3
#>  3 2013-01-03     0       0   11.6
#>  4 2013-01-04     0       0   11.8
#>  5 2013-01-05     0       0   11.7
#>  6 2013-01-06     0       0   11.9
#>  7 2013-01-07     0       0   12.1
#>  8 2013-01-08     0       0   12.2
#>  9 2013-01-09     0       0   12.2
#> 10 2013-01-10     0       0   11.9
#> # … with 2,847 more rows
Indicator columns for acute and chronic indicate if DO concentrations were below the respective threshold at any point during each day. To address the duration of exposure to undersatured conditions, a cumulative tally of the number of days at which dissolved oxygen fell below is threshold is also calculated. These are present in the acute_cumsum and acute_chronicsum columns.

dlysum <- dlysum %>% 
  group_by(grp = cumsum(acute == 0), yr = year(Date), mo = month(Date)) %>% 
  mutate(
    acute_cumsum = cumsum(acute)
  ) %>% 
  ungroup %>% 
  group_by(grp = cumsum(chronic == 0), yr, mo) %>% 
  mutate(
    chronic_cumsum = cumsum(chronic)
  ) %>% 
  select(-grp)
dlysum
#> # A tibble: 2,857 x 9
#> # Groups:   grp, yr, mo [1,661]
#>      grp Date       acute chronic do_mgl    yr    mo acute_cumsum chronic_cumsum
#>    <int> <date>     <dbl>   <dbl>  <dbl> <dbl> <dbl>        <dbl>          <dbl>
#>  1     1 2013-01-01     0       0   11.0  2013     1            0              0
#>  2     2 2013-01-02     0       0   11.3  2013     1            0              0
#>  3     3 2013-01-03     0       0   11.6  2013     1            0              0
#>  4     4 2013-01-04     0       0   11.8  2013     1            0              0
#>  5     5 2013-01-05     0       0   11.7  2013     1            0              0
#>  6     6 2013-01-06     0       0   11.9  2013     1            0              0
#>  7     7 2013-01-07     0       0   12.1  2013     1            0              0
#>  8     8 2013-01-08     0       0   12.2  2013     1            0              0
#>  9     9 2013-01-09     0       0   12.2  2013     1            0              0
#> 10    10 2013-01-10     0       0   11.9  2013     1            0              0
#> # … with 2,847 more rows
…
mosum <- dlysum %>% 
  group_by(
    yr = year(Date), 
    mo = month(Date, label = T, abbr = T)
  ) %>% 
  summarise(
    do_mgl = mean(do_mgl), 
    acute = mean(acute), 
    acute_cumsum = max(acute_cumsum), 
    chronic = mean(chronic), 
    chronic_cumsum = max(chronic_cumsum), 
    .groups = 'drop'
  )
mosum
#> # A tibble: 96 x 7
#>       yr mo    do_mgl acute acute_cumsum chronic chronic_cumsum
#>    <dbl> <ord>  <dbl> <dbl>        <dbl>   <dbl>          <dbl>
#>  1  2013 Jan    11.7  0                0   0                  0
#>  2  2013 Feb    11.8  0                0   0                  0
#>  3  2013 Mar    11.3  0                0   0                  0
#>  4  2013 Apr     9.67 0                0   0                  0
#>  5  2013 May     8.13 0                0   0.161              1
#>  6  2013 Jun     6.59 0.3              5   0.767             13
#>  7  2013 Jul     4.94 0.935           29   0.968             30
#>  8  2013 Aug     5.32 0.806           14   0.871             15
#>  9  2013 Sep     6.02 0.667            6   0.933             17
#> 10  2013 Oct     7.29 0.290            8   0.516             12
#> # … with 86 more rows
…
