Beach Pathogens • peptools
…
The raw data includes concentrations of Enterococcus bacteria as cfu/100 mL for swimming beaches in Suffolk County. The fields include beach name (Name), field number (FieldNum), collection date and time (Date as Eastern Standard Time), bacteria concentration (value), and status showing if the observation was above or below detection (indicated as > or <).

The function anlz_entpep() summarizes the imported data at each beach to quantify instances when bacterial concentrations were at risk of impacting human health. For Suffolk County, all bathing beaches are ranked by relative risk of exposure to harmful bacteria. Factors considered in the ranking include pollution threats (outfalls, discharges, runoff, marinas, etc.), beach location, historical monitoring data, and beach use. Most beaches in the Peconic Estuary are Tier 3 (lowest tier). For the peptools package, the Enterococcus data were used to count the number of instances at each beach when concentrations were above 104 cfu/ml. Although this does not mean a beach was closed, relative exceedances provide a coarse measure of potential risk of exposure to harmful pathogens.

The anlz_entpep() function estimates this exposure risk by counting the number of instances in a year when concentrations at a beach exceeded the threshold for each 24 hour period in the dataset. The results show samples for number of days sampled each year and number of exceedances for the samples. Only the 28 relevant beaches for the Peconic Estuary are returned.

anlz_entpep(entdat)
#> # A tibble: 340 x 4
#>    Name               yr samples exceedances
#>  * <chr>           <dbl>   <int>       <int>
#>  1 Alberts Landing  2010       3           0
#>  2 Alberts Landing  2011       3           0
#>  3 Alberts Landing  2012       4           0
#>  4 Alberts Landing  2013       3           0
#>  5 Alberts Landing  2014       4           0
#>  6 Alberts Landing  2015       3           0
#>  7 Alberts Landing  2016       5           0
#>  8 Alberts Landing  2017       3           0
#>  9 Alberts Landing  2018       6           1
#> 10 Alberts Landing  2019       3           0
#> # … with 330 more rows

The anlz_entpep() function includes an optional arguments for the threshold (thr). The default values are 104 cfu/100 mL, which can easily be changed. Here we use a threshold of 50 cfu/100 mL.

anlz_entpep(entdat, thr = 50)
#> # A tibble: 340 x 4
#>    Name               yr samples exceedances
#>  * <chr>           <dbl>   <int>       <int>
#>  1 Alberts Landing  2010       3           0
#>  2 Alberts Landing  2011       3           0
#>  3 Alberts Landing  2012       4           0
#>  4 Alberts Landing  2013       3           0
#>  5 Alberts Landing  2014       4           0
#>  6 Alberts Landing  2015       3           0
#>  7 Alberts Landing  2016       5           0
#>  8 Alberts Landing  2017       3           0
#>  9 Alberts Landing  2018       6           1
#> 10 Alberts Landing  2019       3           0
#> # … with 330 more rows
…
